{
    "name": "ITEM FUN :3",
    "dimensions": [
      20,
      16
    ],
    "walls": [
      [
        true,
        true,
        true,
        true,
        true,
        true,
        true,
        true,
        true,
        true,
        true,
        true,
        true,
        true,
        true,
        true,
        true,
        true,
        true,
        true
      ],
      [
        true,
        true,
        true,
        true,
        false,
        false,
        false,
        false,
        false,
        false,
        false,
        false,
        false,
        false,
        false,
        false,
        true,
        true,
        true,
        true
      ],
      [
        true,
        true,
        true,
        true,
        true,
        true,
        true,
        true,
        true,
        true,
        false,
        true,
        true,
        true,
        true,
        true,
        true,
        true,
        true,
        true
      ],
      [
        true,
        true,
        true,
        true,
        true,
        true,
        true,
        true,
        true,
        true,
        false,
        true,
        true,
        true,
        true,
        true,
        true,
        true,
        true,
        true
      ],
      [
        true,
        true,
        true,
        true,
        true,
        true,
        true,
        true,
        true,
        true,
        false,
        true,
        true,
        true,
        true,
        true,
        true,
        true,
        true,
        true
      ],
      [
        true,
        true,
        true,
        true,
        true,
        true,
        true,
        true,
        true,
        true,
        false,
        true,
        true,
        true,
        true,
        true,
        true,
        true,
        true,
        true
      ],
      [
        true,
        true,
        true,
        true,
        true,
        true,
        true,
        true,
        true,
        true,
        false,
        true,
        true,
        true,
        true,
        true,
        true,
        true,
        true,
        true
      ],
      [
        true,
        true,
        true,
        true,
        true,
        true,
        true,
        true,
        true,
        true,
        false,
        true,
        true,
        true,
        true,
        true,
        true,
        true,
        true,
        true
      ],
      [
        true,
        true,
        true,
        true,
        true,
        true,
        true,
        true,
        true,
        true,
        false,
        true,
        true,
        true,
        true,
        true,
        true,
        true,
        true,
        true
      ],
      [
        true,
        true,
        true,
        true,
        true,
        true,
        true,
        true,
        true,
        true,
        false,
        true,
        true,
        true,
        true,
        true,
        true,
        true,
        true,
        true
      ],
      [
        true,
        true,
        true,
        true,
        true,
        true,
        true,
        true,
        true,
        true,
        false,
        true,
        true,
        true,
        true,
        true,
        true,
        true,
        true,
        true
      ],
      [
        true,
        true,
        true,
        true,
        true,
        true,
        true,
        true,
        true,
        true,
        false,
        true,
        true,
        true,
        true,
        true,
        true,
        true,
        true,
        true
      ],
      [
        true,
        true,
        true,
        true,
        true,
        true,
        true,
        true,
        true,
        true,
        false,
        true,
        true,
        true,
        true,
        true,
        true,
        true,
        true,
        true
      ],
      [
        true,
        true,
        true,
        true,
        true,
        true,
        true,
        true,
        true,
        true,
        false,
        true,
        true,
        true,
        true,
        true,
        true,
        true,
        true,
        true
      ],
      [
        true,
        true,
        true,
        true,
        false,
        false,
        false,
        false,
        false,
        false,
        false,
        false,
        false,
        false,
        false,
        false,
        true,
        true,
        true,
        true
      ],
      [
        true,
        true,
        true,
        true,
        true,
        true,
        true,
        true,
        true,
        true,
        true,
        true,
        true,
        true,
        true,
        true,
        true,
        true,
        true,
        true
      ]
    ],
    "start_fields": [
      [
        10,
        14
      ]
    ],
    "goal_fields": [
      [
        10,
        1
      ]
    ],
    "item_fields": [
      [
        4,
        1
      ],
      [
        5,
        1
      ],
      [
        6,
        1
      ],
      [
        7,
        1
      ],
      [
        8,
        1
      ],
      [
        9,
        1
      ],
      [
        11,
        1
      ],
      [
        12,
        1
      ],
      [
        13,
        1
      ],
      [
        14,
        1
      ],
      [
        15,
        1
      ],
      [
        10,
        2
      ],
      [
        10,
        3
      ],
      [
        10,
        4
      ],
      [
        10,
        5
      ],
      [
        10,
        6
      ],
      [
        10,
        7
      ],
      [
        10,
        8
      ],
      [
        10,
        9
      ],
      [
        10,
        10
      ],
      [
        10,
        11
      ],
      [
        10,
        12
      ],
      [
        10,
        13
      ],
      [
        4,
        14
      ],
      [
        5,
        14
      ],
      [
        6,
        14
      ],
      [
        7,
        14
      ],
      [
        8,
        14
      ],
      [
        9,
        14
      ],
      [
        11,
        14
      ],
      [
        12,
        14
      ],
      [
        13,
        14
      ],
      [
        14,
        14
      ],
      [
        15,
        14
      ]
    ]
  }