{
    "entries": [
        {
            "category": "Supervisors",
            "description": "were there keep the event on course",
            "names": ["Timo Philipp Gros", "Pascal Held", "Pascal Lauer", "Niklas Metzger", "Franz Walgenbach", "Kallistos Weis"]
        },
        {
            "category": "Coaches",
            "description": "helped with technical challenges<br>of any kind",
            "names": ["Jan Baumeister", "Sven Ehses", "Christina Eimer", "Pascal Hennen", "Lukas Kirschner", "Dominik Luche", "Hendrik Meerkamp", "Carl Schwan", "Sebastian Wack", "Jannic Warken", "Daniel Weber"]
        },
        {
            "category": "Tutors",
            "description": "provided help and support in solving all kinds of problems",
            "names": ["Stephan-Alexander Ariesanu", "Gideon Geier", "Jakob Görgen", "Emma Sophie Hoffmann", "Christian Kapp", "Dominik Kempter", "Jonas Klesen", "Niklas Medinger", "Marvin Meiers", "Stefan Oswald", "Jens Petermann", "Jessica Schmidt", "Lauritz Timm"]
        }
    ]
}